<?xml version="1.0" encoding="utf-8"?>
<COLLADA xmlns="http://www.collada.org/2005/11/COLLADASchema" version="1.4.1">
  <asset>
    <contributor>
      <author>Blender User</author>
      <authoring_tool>Blender 2.70.0 commit date:2014-04-10, commit time:11:49, hash:f93bc76</authoring_tool>
    </contributor>
    <created>2014-05-09T18:17:04</created>
    <modified>2014-05-09T18:17:04</modified>
    <unit name="meter" meter="1"/>
    <up_axis>Z_UP</up_axis>
  </asset>
  <library_cameras>
    <camera id="Camera-camera" name="Camera">
      <optics>
        <technique_common>
          <perspective>
            <xfov sid="xfov">49.13434</xfov>
            <aspect_ratio>1.777778</aspect_ratio>
            <znear sid="znear">0.1</znear>
            <zfar sid="zfar">100</zfar>
          </perspective>
        </technique_common>
      </optics>
      <extra>
        <technique profile="blender">
          <YF_dofdist>0</YF_dofdist>
          <shiftx>0</shiftx>
          <shifty>0</shifty>
        </technique>
      </extra>
    </camera>
  </library_cameras>
  <library_lights>
    <light id="Sun-light" name="Sun">
      <technique_common>
        <directional>
          <color sid="color">1 1 1</color>
        </directional>
      </technique_common>
      <extra>
        <technique profile="blender">
          <adapt_thresh>0.000999987</adapt_thresh>
          <area_shape>0</area_shape>
          <area_size>1</area_size>
          <area_sizey>1</area_sizey>
          <area_sizez>1</area_sizez>
          <atm_distance_factor>1</atm_distance_factor>
          <atm_extinction_factor>1</atm_extinction_factor>
          <atm_turbidity>2</atm_turbidity>
          <att1>0</att1>
          <att2>1</att2>
          <backscattered_light>1</backscattered_light>
          <bias>1</bias>
          <blue>1</blue>
          <buffers>1</buffers>
          <bufflag>0</bufflag>
          <bufsize>512</bufsize>
          <buftype>2</buftype>
          <clipend>40</clipend>
          <clipsta>0.5</clipsta>
          <compressthresh>0.04999995</compressthresh>
          <dist sid="blender_dist">25</dist>
          <energy sid="blender_energy">1</energy>
          <falloff_type>2</falloff_type>
          <filtertype>0</filtertype>
          <flag>0</flag>
          <gamma sid="blender_gamma">1</gamma>
          <green>1</green>
          <halo_intensity sid="blnder_halo_intensity">1</halo_intensity>
          <horizon_brightness>1</horizon_brightness>
          <mode>1</mode>
          <ray_samp>1</ray_samp>
          <ray_samp_method>1</ray_samp_method>
          <ray_samp_type>0</ray_samp_type>
          <ray_sampy>1</ray_sampy>
          <ray_sampz>1</ray_sampz>
          <red>1</red>
          <samp>3</samp>
          <shadhalostep>0</shadhalostep>
          <shadow_b sid="blender_shadow_b">0</shadow_b>
          <shadow_g sid="blender_shadow_g">0</shadow_g>
          <shadow_r sid="blender_shadow_r">0</shadow_r>
          <sky_colorspace>2</sky_colorspace>
          <sky_exposure>1</sky_exposure>
          <skyblendfac>1</skyblendfac>
          <skyblendtype>1</skyblendtype>
          <soft>3</soft>
          <spotblend>0.15</spotblend>
          <spotsize>45</spotsize>
          <spread>1</spread>
          <sun_brightness>1</sun_brightness>
          <sun_effect_type>0</sun_effect_type>
          <sun_intensity>1</sun_intensity>
          <sun_size>1</sun_size>
          <type>1</type>
        </technique>
      </extra>
    </light>
  </library_lights>
  <library_images/>
  <library_effects>
    <effect id="Player-effect">
      <profile_COMMON>
        <technique sid="common">
          <lambert>
            <emission>
              <color sid="emission">0 0 0 1</color>
            </emission>
            <ambient>
              <color sid="ambient">0 0 0 1</color>
            </ambient>
            <diffuse>
              <color sid="diffuse">0.64 0.64 0.64 1</color>
            </diffuse>
            <transparency>
              <float sid="transparency">1</float>
            </transparency>
            <index_of_refraction>
              <float sid="index_of_refraction">1</float>
            </index_of_refraction>
          </lambert>
        </technique>
      </profile_COMMON>
    </effect>
  </library_effects>
  <library_materials>
    <material id="Player-material" name="Player">
      <instance_effect url="#Player-effect"/>
    </material>
  </library_materials>
  <library_geometries>
    <geometry id="Cube-mesh" name="Cube">
      <mesh>
        <source id="Cube-mesh-positions">
          <float_array id="Cube-mesh-positions-array" count="216">0.6960973 0.6960972 4.000257 0.6960973 -0.6960973 4.000257 -0.6960974 -0.6960971 4.000257 -0.6960971 0.6960976 4.000257 0.6960977 0.696097 5.392451 0.6960969 -0.6960977 5.392451 -0.6960976 -0.6960971 5.392451 -0.6960972 0.6960973 5.392451 -0.6600041 -0.330002 2.000256 -0.6600041 0.330002 2.000256 0.6600041 0.330002 2.000256 0.6600041 -0.330002 2.000256 -0.6600041 -0.330002 4.000257 -0.6600041 0.330002 4.000257 0.6600041 0.330002 4.000257 0.6600041 -0.330002 4.000257 -0.6600041 -0.330002 2.55823e-4 -0.6600041 0.330002 2.55823e-4 0 0.330002 2.000256 0 -0.330002 2.000256 -0.6600041 -0.330002 2.000256 -0.6600041 0.330002 2.000256 0 0.330002 2.55823e-4 0 -0.330002 2.55823e-4 0 0.330002 2.000256 0 0.330002 2.55823e-4 0 -0.330002 2.000256 0 -0.330002 2.55823e-4 0.6600041 -0.330002 2.55823e-4 0.6600041 -0.330002 2.000256 0.6600041 0.330002 2.55823e-4 0.6600041 0.330002 2.000256 -1.320008 0.330002 4.000257 -1.320008 -0.330002 4.000257 -1.320008 0.330002 2.000256 -1.320008 -0.330002 2.000256 -0.6600041 -0.330002 2.000256 -0.6600041 -0.330002 4.000257 -0.6600041 0.330002 2.000256 -0.6600041 0.330002 4.000257 1.320008 0.330002 4.000257 1.320008 0.330002 2.000256 1.320008 -0.330002 4.000257 1.320008 -0.330002 2.000256 0.6600041 -0.330002 2.000256 0.6600041 0.330002 2.000256 0.6600041 -0.330002 4.000257 0.6600041 0.330002 4.000257 0.7472767 0.7472767 3.949077 0.7472767 -0.7472767 3.949077 -0.7472769 -0.7472766 3.949077 -0.7472764 0.747277 3.949077 0.7472771 0.7472764 5.443631 0.7472763 -0.7472772 5.443631 -0.747277 -0.7472765 5.443631 -0.7472767 0.7472767 5.443631 -0.6600041 0.330002 3.000256 -0.6600041 -0.330002 3.000256 -1.320008 0.330002 3.000256 -1.320008 -0.330002 3.000256 1.320008 -0.330002 3.000256 1.320008 0.330002 3.000256 0.6600041 -0.330002 3.000256 0.6600041 0.330002 3.000256 0 -0.330002 1.000256 0 0.330002 1.000256 -0.6600041 -0.330002 1.000256 -0.6600041 0.330002 1.000256 0.6600041 0.330002 1.000256 0.6600041 -0.330002 1.000256 0 0.330002 1.000256 0 -0.330002 1.000256</float_array>
          <technique_common>
            <accessor source="#Cube-mesh-positions-array" count="72" stride="3">
              <param name="X" type="float"/>
              <param name="Y" type="float"/>
              <param name="Z" type="float"/>
            </accessor>
          </technique_common>
        </source>
        <source id="Cube-mesh-normals">
          <float_array id="Cube-mesh-normals-array" count="348">0 0 -1 0 0 1 1 -5.56575e-7 2.5688e-7 -4.70948e-7 -1 0 -1 2.99694e-7 -1.71254e-7 2.99694e-7 1 2.56881e-7 -1 0 0 0 1 0 1 0 0 0 -1 0 0 0 -1 0 0 1 -1 0 0 0 1 0 0 0 1 0 -1 0 0 -1 0 0 0 1 0 1 0 -1 0 0 0 0 -1 1 0 0 0 0 -1 1 0 0 0 -1 0 0 0 1 0 0 -1 0 1 0 -1 0 0 1 0 0 1 0 0 0 -1 0 0 0 1 0 0 -1 0 1 0 -1 0 0 0 0 -1 0 0 1 1 -5.18456e-7 2.79168e-7 -4.78575e-7 -1 0 -1 1.99406e-7 0 1.59525e-7 1 1.59525e-7 1 0 0 0 -1 0 0 1 0 -1 0 0 1 0 0 0 -1 0 0 1 0 -1 0 0 1 0 0 0 -1 0 -1 0 0 0 1 0 -1 0 0 0 -1 0 1 0 0 0 1 0 0 0 -1 0 0 1 1 0 -2.99694e-7 0 -1 -3.42508e-7 -1 2.14067e-7 0 2.14067e-7 1 1.71254e-7 -1 0 0 0 1 0 1 0 0 0 -1 0 0 0 -1 0 0 1 -1 0 0 0 1 0 0 0 1 0 -1 0 0 -1 0 0 0 1 0 1 0 -1 0 0 0 0 -1 1 0 0 0 0 -1 1 0 0 0 -1 0 0 0 1 0 0 -1 0 1 0 -1 0 0 1 0 0 1 0 0 0 -1 0 0 0 1 0 0 -1 0 1 0 -1 0 0 0 0 -1 0 0 1 1 0 -2.39287e-7 -1.19644e-7 -1 -3.1905e-7 -1 3.58931e-7 -1.99406e-7 2.39287e-7 1 2.39287e-7 1 0 0 0 -1 0 0 1 0 -1 0 0 1 0 0 0 -1 0 0 1 0 -1 0 0 1 0 0 0 -1 0 -1 0 0 0 1 0 -1 0 0 0 -1 0 1 0 0 0 1 0</float_array>
          <technique_common>
            <accessor source="#Cube-mesh-normals-array" count="116" stride="3">
              <param name="X" type="float"/>
              <param name="Y" type="float"/>
              <param name="Z" type="float"/>
            </accessor>
          </technique_common>
        </source>
        <source id="Cube-mesh-map-0">
          <float_array id="Cube-mesh-map-0-array" count="696">0.375 0.75 0.375 1 0.25 1 0.125 1 0.125 0.75 0.25 0.75 0.375 0.75 0.25 0.75 0.25 0.5 0.25 0.75 0.125 0.75 0.125 0.5 0.125 0.5 0.125 0.75 0 0.75 0.375 0.5 0.5 0.5 0.5 0.75 0.3125 0.375 0.25 0.375 0.25 0 0.625 0.375 0.5 0.375 0.5 0 0.5 0.375 0.4375 0.375 0.4375 0 0.4375 0.375 0.3125 0.375 0.3125 0 0.4375 0.5 0.4375 0.375 0.5625 0.375 0.4375 0.375 0.4375 0.5 0.3125 0.5 0.0625 0.1875 0 0.1875 0 0 0.1875 0.203125 0.25 0.203125 0.25 0 0.0625 0.375 0.0625 0.5 0.125 0.5 0.125 0.1875 0.0625 0.1875 0.0625 0 0.0625 0.203125 0.125 0.203125 0.125 0 0.125 0.375 0.125 0.5 0.0625 0.5 0.25 0.1875 0.1875 0.1875 0.1875 0 0.125 0.203125 0.1875 0.203125 0.1875 0 0.125 0.5 0.125 0.375 0.1875 0.375 0.1875 0.1875 0.125 0.1875 0.125 0 0.1875 0.5 0.1875 0.375 0.125 0.375 0.625 0.1875 0.6875 0.1875 0.6875 0 0.6875 0.1875 0.75 0.1875 0.75 0 0.6875 0.375 0.6875 0.5 0.75 0.5 0.8125 0.5 0.8125 0.375 0.75 0.375 0.875 0.1875 0.8125 0.1875 0.8125 0 0.75 0.1875 0.8125 0.1875 0.8125 0 0 0.203125 0.0625 0.203125 0.0625 0 0.8125 0.1875 0.75 0.1875 0.75 0 0.75 0.1875 0.6875 0.1875 0.6875 0 0.75 0.375 0.75 0.5 0.6875 0.5 0.75 0.5 0.75 0.375 0.8125 0.375 0.875 0.1875 0.8125 0.1875 0.8125 0 0.6875 0.1875 0.625 0.1875 0.625 0 0.875 0.75 0.875 1 0.75 1 0.75 1 0.625 1 0.625 0.75 0.875 0.75 0.75 0.75 0.75 0.5 0.75 0.75 0.625 0.75 0.625 0.5 0.625 0.5 0.625 0.75 0.5 0.75 0.875 0.5 1 0.5 1 0.75 0.8125 0.375 0.75 0.375 0.75 0.1875 0.75 0.375 0.6875 0.375 0.6875 0.1875 0.875 0.375 0.8125 0.375 0.8125 0.1875 0.6875 0.375 0.625 0.375 0.625 0.1875 0.625 0.375 0.6875 0.375 0.6875 0.1875 0.6875 0.375 0.75 0.375 0.75 0.1875 0.875 0.375 0.8125 0.375 0.8125 0.1875 0.75 0.375 0.8125 0.375 0.8125 0.1875 0.1875 0.375 0.125 0.375 0.125 0.1875 0.0625 0.375 0.125 0.375 0.125 0.203125 0.0625 0.375 0 0.375 0 0.1875 0.25 0.375 0.1875 0.375 0.1875 0.1875 0.125 0.375 0.1875 0.375 0.1875 0.203125 0.125 0.375 0.0625 0.375 0.0625 0.1875 0 0.375 0.0625 0.375 0.0625 0.203125 0.1875 0.375 0.25 0.375 0.25 0.203125 0.25 0.75 0.375 0.75 0.25 1 0.25 1 0.125 1 0.25 0.75 0.375 0.5 0.375 0.75 0.25 0.5 0.25 0.5 0.25 0.75 0.125 0.5 0 0.5 0.125 0.5 0 0.75 0.375 0.75 0.375 0.5 0.5 0.75 0.3125 0 0.3125 0.375 0.25 0 0.625 0 0.625 0.375 0.5 0 0.5 0 0.5 0.375 0.4375 0 0.4375 0 0.4375 0.375 0.3125 0 0.5625 0.5 0.4375 0.5 0.5625 0.375 0.3125 0.375 0.4375 0.375 0.3125 0.5 0.0625 0 0.0625 0.1875 0 0 0.1875 0 0.1875 0.203125 0.25 0 0.125 0.375 0.0625 0.375 0.125 0.5 0.125 0 0.125 0.1875 0.0625 0 0.0625 0 0.0625 0.203125 0.125 0 0.0625 0.375 0.125 0.375 0.0625 0.5 0.25 0 0.25 0.1875 0.1875 0 0.125 0 0.125 0.203125 0.1875 0 0.1875 0.5 0.125 0.5 0.1875 0.375 0.1875 0 0.1875 0.1875 0.125 0 0.125 0.5 0.1875 0.5 0.125 0.375 0.625 0 0.625 0.1875 0.6875 0 0.6875 0 0.6875 0.1875 0.75 0 0.75 0.375 0.6875 0.375 0.75 0.5 0.75 0.5 0.8125 0.5 0.75 0.375 0.875 0 0.875 0.1875 0.8125 0 0.75 0 0.75 0.1875 0.8125 0 0 0 0 0.203125 0.0625 0 0.8125 0 0.8125 0.1875 0.75 0 0.75 0 0.75 0.1875 0.6875 0 0.6875 0.375 0.75 0.375 0.6875 0.5 0.8125 0.5 0.75 0.5 0.8125 0.375 0.875 0 0.875 0.1875 0.8125 0 0.6875 0 0.6875 0.1875 0.625 0 0.75 0.75 0.875 0.75 0.75 1 0.75 0.75 0.75 1 0.625 0.75 0.875 0.5 0.875 0.75 0.75 0.5 0.75 0.5 0.75 0.75 0.625 0.5 0.5 0.5 0.625 0.5 0.5 0.75 0.875 0.75 0.875 0.5 1 0.75 0.8125 0.1875 0.8125 0.375 0.75 0.1875 0.75 0.1875 0.75 0.375 0.6875 0.1875 0.875 0.1875 0.875 0.375 0.8125 0.1875 0.6875 0.1875 0.6875 0.375 0.625 0.1875 0.625 0.1875 0.625 0.375 0.6875 0.1875 0.6875 0.1875 0.6875 0.375 0.75 0.1875 0.875 0.1875 0.875 0.375 0.8125 0.1875 0.75 0.1875 0.75 0.375 0.8125 0.1875 0.1875 0.1875 0.1875 0.375 0.125 0.1875 0.0625 0.203125 0.0625 0.375 0.125 0.203125 0.0625 0.1875 0.0625 0.375 0 0.1875 0.25 0.1875 0.25 0.375 0.1875 0.1875 0.125 0.203125 0.125 0.375 0.1875 0.203125 0.125 0.1875 0.125 0.375 0.0625 0.1875 0 0.203125 0 0.375 0.0625 0.203125 0.1875 0.203125 0.1875 0.375 0.25 0.203125</float_array>
          <technique_common>
            <accessor source="#Cube-mesh-map-0-array" count="348" stride="2">
              <param name="S" type="float"/>
              <param name="T" type="float"/>
            </accessor>
          </technique_common>
        </source>
        <vertices id="Cube-mesh-vertices">
          <input semantic="POSITION" source="#Cube-mesh-positions"/>
        </vertices>
        <polylist material="Player-material" count="116">
          <input semantic="VERTEX" source="#Cube-mesh-vertices" offset="0"/>
          <input semantic="NORMAL" source="#Cube-mesh-normals" offset="1"/>
          <input semantic="TEXCOORD" source="#Cube-mesh-map-0" offset="2" set="0"/>
          <vcount>3 3 3 3 3 3 3 3 3 3 3 3 3 3 3 3 3 3 3 3 3 3 3 3 3 3 3 3 3 3 3 3 3 3 3 3 3 3 3 3 3 3 3 3 3 3 3 3 3 3 3 3 3 3 3 3 3 3 3 3 3 3 3 3 3 3 3 3 3 3 3 3 3 3 3 3 3 3 3 3 3 3 3 3 3 3 3 3 3 3 3 3 3 3 3 3 3 3 3 3 3 3 3 3 3 3 3 3 3 3 3 3 3 3 3 3 </vcount>
          <p>0 0 0 1 0 1 2 0 2 7 1 3 6 1 4 5 1 5 4 2 6 5 2 7 1 2 8 5 3 9 6 3 10 2 3 11 2 4 12 6 4 13 7 4 14 0 5 15 3 5 16 7 5 17 12 6 18 13 6 19 9 6 20 13 7 21 14 7 22 10 7 23 14 8 24 15 8 25 11 8 26 15 9 27 12 9 28 8 9 29 8 10 30 9 10 31 10 10 32 15 11 33 14 11 34 13 11 35 66 12 36 67 12 37 17 12 38 70 13 39 68 13 40 30 13 41 29 14 42 31 14 43 18 14 44 64 15 45 66 15 46 16 15 47 69 16 48 71 16 49 23 16 50 26 17 51 24 17 52 21 17 53 67 18 54 65 18 55 25 18 56 71 19 57 70 19 58 22 19 59 16 20 60 17 20 61 25 20 62 65 21 63 64 21 64 27 21 65 23 22 66 22 22 67 30 22 68 61 23 69 60 23 70 43 23 71 60 24 72 62 24 73 44 24 74 42 25 75 40 25 76 47 25 77 44 26 78 45 26 79 41 26 80 63 27 81 61 27 82 41 27 83 62 28 84 63 28 85 45 28 86 68 29 87 69 29 88 28 29 89 56 30 90 57 30 91 36 30 92 57 31 93 59 31 94 35 31 95 37 32 96 39 32 97 32 32 98 35 33 99 34 33 100 38 33 101 58 34 102 56 34 103 38 34 104 59 35 105 58 35 106 34 35 107 48 36 108 49 36 109 50 36 110 52 37 111 55 37 112 54 37 113 52 38 114 53 38 115 49 38 116 53 39 117 54 39 118 50 39 119 50 40 120 54 40 121 55 40 122 48 41 123 51 41 124 55 41 125 39 42 126 37 42 127 57 42 128 37 43 129 33 43 130 59 43 131 32 44 132 39 44 133 56 44 134 33 45 135 32 45 136 58 45 137 40 46 138 42 46 139 60 46 140 42 47 141 46 47 142 62 47 143 47 48 144 40 48 145 61 48 146 46 49 147 47 49 148 63 49 149 24 50 150 26 50 151 64 50 152 29 51 153 19 51 154 71 51 155 20 52 156 21 52 157 67 52 158 21 53 159 24 53 160 65 53 161 19 54 162 18 54 163 70 54 164 26 55 165 20 55 166 66 55 167 31 56 168 29 56 169 69 56 170 18 57 171 31 57 172 68 57 173 3 58 174 0 58 175 2 58 176 4 59 177 7 59 178 5 59 179 0 60 180 4 60 181 1 60 182 1 61 183 5 61 184 2 61 185 3 62 186 2 62 187 7 62 188 4 63 189 0 63 190 7 63 191 8 64 192 12 64 193 9 64 194 9 65 195 13 65 196 10 65 197 10 66 198 14 66 199 11 66 200 11 67 201 15 67 202 8 67 203 11 68 204 8 68 205 10 68 206 12 69 207 15 69 208 13 69 209 16 70 210 66 70 211 17 70 212 22 71 213 70 71 214 30 71 215 19 72 216 29 72 217 18 72 218 27 73 219 64 73 220 16 73 221 28 74 222 69 74 223 23 74 224 20 75 225 26 75 226 21 75 227 17 76 228 67 76 229 25 76 230 23 77 231 71 77 232 22 77 233 27 78 234 16 78 235 25 78 236 25 79 237 65 79 238 27 79 239 28 80 240 23 80 241 30 80 242 41 81 243 61 81 244 43 81 245 43 82 246 60 82 247 44 82 248 46 83 249 42 83 250 47 83 251 43 84 252 44 84 253 41 84 254 45 85 255 63 85 256 41 85 257 44 86 258 62 86 259 45 86 260 30 87 261 68 87 262 28 87 263 38 88 264 56 88 265 36 88 266 36 89 267 57 89 268 35 89 269 33 90 270 37 90 271 32 90 272 36 91 273 35 91 274 38 91 275 34 92 276 58 92 277 38 92 278 35 93 279 59 93 280 34 93 281 51 94 282 48 94 283 50 94 284 53 95 285 52 95 286 54 95 287 48 96 288 52 96 289 49 96 290 49 97 291 53 97 292 50 97 293 51 98 294 50 98 295 55 98 296 52 99 297 48 99 298 55 99 299 56 100 300 39 100 301 57 100 302 57 101 303 37 101 304 59 101 305 58 102 306 32 102 307 56 102 308 59 103 309 33 103 310 58 103 311 61 104 312 40 104 313 60 104 314 60 105 315 42 105 316 62 105 317 63 106 318 47 106 319 61 106 320 62 107 321 46 107 322 63 107 323 65 108 324 24 108 325 64 108 326 69 109 327 29 109 328 71 109 329 66 110 330 20 110 331 67 110 332 67 111 333 21 111 334 65 111 335 71 112 336 19 112 337 70 112 338 64 113 339 26 113 340 66 113 341 68 114 342 31 114 343 69 114 344 70 115 345 18 115 346 68 115 347</p>
        </polylist>
      </mesh>
    </geometry>
  </library_geometries>
  <library_animations>
    <animation id="PlayerArmature_root_pose_matrix">
      <source id="PlayerArmature_root_pose_matrix-input">
        <float_array id="PlayerArmature_root_pose_matrix-input-array" count="5">0.04166662 0.4166666 0.8333333 1.25 1.666667</float_array>
        <technique_common>
          <accessor source="#PlayerArmature_root_pose_matrix-input-array" count="5" stride="1">
            <param name="TIME" type="float"/>
          </accessor>
        </technique_common>
      </source>
      <source id="PlayerArmature_root_pose_matrix-output">
        <float_array id="PlayerArmature_root_pose_matrix-output-array" count="80">1 0 0 0 0 -4.37114e-8 -1 0 0 1 -4.37114e-8 -0.4237617 0 0 0 1 1 0 0 0 0 -4.37114e-8 -1 0 0 1 -4.37114e-8 -0.4237617 0 0 0 1 1 0 0 0 0 -4.37114e-8 -1 0 0 1 -4.37114e-8 -0.4237617 0 0 0 1 1 0 0 0 0 -4.37114e-8 -1 0 0 1 -4.37114e-8 -0.4237617 0 0 0 1 1 0 0 0 0 -4.37114e-8 -1 0 0 1 -4.37114e-8 -0.4237617 0 0 0 1</float_array>
        <technique_common>
          <accessor source="#PlayerArmature_root_pose_matrix-output-array" count="5" stride="16">
            <param name="TRANSFORM" type="float4x4"/>
          </accessor>
        </technique_common>
      </source>
      <source id="PlayerArmature_root_pose_matrix-interpolation">
        <Name_array id="PlayerArmature_root_pose_matrix-interpolation-array" count="5">LINEAR LINEAR LINEAR LINEAR LINEAR</Name_array>
        <technique_common>
          <accessor source="#PlayerArmature_root_pose_matrix-interpolation-array" count="5" stride="1">
            <param name="INTERPOLATION" type="name"/>
          </accessor>
        </technique_common>
      </source>
      <sampler id="PlayerArmature_root_pose_matrix-sampler">
        <input semantic="INPUT" source="#PlayerArmature_root_pose_matrix-input"/>
        <input semantic="OUTPUT" source="#PlayerArmature_root_pose_matrix-output"/>
        <input semantic="INTERPOLATION" source="#PlayerArmature_root_pose_matrix-interpolation"/>
      </sampler>
      <channel source="#PlayerArmature_root_pose_matrix-sampler" target="root/transform"/>
    </animation>
    <animation id="PlayerArmature_uleg_L_pose_matrix">
      <source id="PlayerArmature_uleg_L_pose_matrix-input">
        <float_array id="PlayerArmature_uleg_L_pose_matrix-input-array" count="5">0.04166662 0.4166666 0.8333333 1.25 1.666667</float_array>
        <technique_common>
          <accessor source="#PlayerArmature_uleg_L_pose_matrix-input-array" count="5" stride="1">
            <param name="TIME" type="float"/>
          </accessor>
        </technique_common>
      </source>
      <source id="PlayerArmature_uleg_L_pose_matrix-output">
        <float_array id="PlayerArmature_uleg_L_pose_matrix-output-array" count="80">-1 3.82137e-15 -8.74228e-8 0.3384084 -3.82137e-15 -1 0 0.2152418 -8.74228e-8 0 1 5.53796e-9 0 0 0 1 -1 -3.55271e-15 -8.74228e-8 0.3384084 -2.80031e-8 -0.9473102 0.3203177 0.2152418 -8.28165e-8 0.3203177 0.9473102 5.53796e-9 0 0 0 1 -1 3.55271e-15 -8.74228e-8 0.3384084 4.90279e-8 -0.8279419 -0.5608139 0.2152418 -7.2381e-8 -0.5608139 0.8279419 5.53796e-9 0 0 0 1 -1 3.3051e-15 -8.74228e-8 0.3384084 -8.5159e-15 -1 5.96046e-8 0.2152418 -8.74228e-8 5.96046e-8 1 5.53796e-9 0 0 0 1 -1 3.3051e-15 -8.74228e-8 0.3384084 -8.5159e-15 -1 5.96046e-8 0.2152418 -8.74228e-8 5.96046e-8 1 5.53796e-9 0 0 0 1</float_array>
        <technique_common>
          <accessor source="#PlayerArmature_uleg_L_pose_matrix-output-array" count="5" stride="16">
            <param name="TRANSFORM" type="float4x4"/>
          </accessor>
        </technique_common>
      </source>
      <source id="PlayerArmature_uleg_L_pose_matrix-interpolation">
        <Name_array id="PlayerArmature_uleg_L_pose_matrix-interpolation-array" count="5">LINEAR LINEAR LINEAR LINEAR LINEAR</Name_array>
        <technique_common>
          <accessor source="#PlayerArmature_uleg_L_pose_matrix-interpolation-array" count="5" stride="1">
            <param name="INTERPOLATION" type="name"/>
          </accessor>
        </technique_common>
      </source>
      <sampler id="PlayerArmature_uleg_L_pose_matrix-sampler">
        <input semantic="INPUT" source="#PlayerArmature_uleg_L_pose_matrix-input"/>
        <input semantic="OUTPUT" source="#PlayerArmature_uleg_L_pose_matrix-output"/>
        <input semantic="INTERPOLATION" source="#PlayerArmature_uleg_L_pose_matrix-interpolation"/>
      </sampler>
      <channel source="#PlayerArmature_uleg_L_pose_matrix-sampler" target="uleg_L/transform"/>
    </animation>
    <animation id="PlayerArmature_lleg_L_pose_matrix">
      <source id="PlayerArmature_lleg_L_pose_matrix-input">
        <float_array id="PlayerArmature_lleg_L_pose_matrix-input-array" count="5">0.04166662 0.4166666 0.8333333 1.25 1.666667</float_array>
        <technique_common>
          <accessor source="#PlayerArmature_lleg_L_pose_matrix-input-array" count="5" stride="1">
            <param name="TIME" type="float"/>
          </accessor>
        </technique_common>
      </source>
      <source id="PlayerArmature_lleg_L_pose_matrix-output">
        <float_array id="PlayerArmature_lleg_L_pose_matrix-output-array" count="80">1 0 0 0 0 1 0 0.8542596 0 0 1 0 0 0 0 1 1 0 0 0 0 1 0 0.8542596 0 0 1 0 0 0 0 1 1 0 0 0 0 1 0 0.8542596 0 0 1 0 0 0 0 1 1 0 0 0 0 1 0 0.8542596 0 0 1 0 0 0 0 1 1 0 0 0 0 1 0 0.8542596 0 0 1 0 0 0 0 1</float_array>
        <technique_common>
          <accessor source="#PlayerArmature_lleg_L_pose_matrix-output-array" count="5" stride="16">
            <param name="TRANSFORM" type="float4x4"/>
          </accessor>
        </technique_common>
      </source>
      <source id="PlayerArmature_lleg_L_pose_matrix-interpolation">
        <Name_array id="PlayerArmature_lleg_L_pose_matrix-interpolation-array" count="5">LINEAR LINEAR LINEAR LINEAR LINEAR</Name_array>
        <technique_common>
          <accessor source="#PlayerArmature_lleg_L_pose_matrix-interpolation-array" count="5" stride="1">
            <param name="INTERPOLATION" type="name"/>
          </accessor>
        </technique_common>
      </source>
      <sampler id="PlayerArmature_lleg_L_pose_matrix-sampler">
        <input semantic="INPUT" source="#PlayerArmature_lleg_L_pose_matrix-input"/>
        <input semantic="OUTPUT" source="#PlayerArmature_lleg_L_pose_matrix-output"/>
        <input semantic="INTERPOLATION" source="#PlayerArmature_lleg_L_pose_matrix-interpolation"/>
      </sampler>
      <channel source="#PlayerArmature_lleg_L_pose_matrix-sampler" target="lleg_L/transform"/>
    </animation>
    <animation id="PlayerArmature_uleg_R_pose_matrix">
      <source id="PlayerArmature_uleg_R_pose_matrix-input">
        <float_array id="PlayerArmature_uleg_R_pose_matrix-input-array" count="5">0.04166662 0.4166666 0.8333333 1.25 1.666667</float_array>
        <technique_common>
          <accessor source="#PlayerArmature_uleg_R_pose_matrix-input-array" count="5" stride="1">
            <param name="TIME" type="float"/>
          </accessor>
        </technique_common>
      </source>
      <source id="PlayerArmature_uleg_R_pose_matrix-output">
        <float_array id="PlayerArmature_uleg_R_pose_matrix-output-array" count="80">-1 -3.82137e-15 8.74228e-8 -0.3384084 3.82137e-15 -1 0 0.2152418 8.74228e-8 0 1 5.53796e-9 0 0 0 1 -1 -1.06581e-14 8.74228e-8 -0.3384084 -2.80031e-8 -0.9473102 -0.3203177 0.2152418 8.28165e-8 -0.3203177 0.9473102 5.53796e-9 0 0 0 1 -1 -3.55271e-15 8.74228e-8 -0.3384084 4.90279e-8 -0.8279419 0.5608139 0.2152418 7.2381e-8 0.5608139 0.8279419 5.53796e-9 0 0 0 1 -1 -4.33764e-15 8.74228e-8 -0.3384084 -8.73162e-16 -1 -5.96046e-8 0.2152418 8.74228e-8 -5.96046e-8 1 5.53796e-9 0 0 0 1 -1 -4.33764e-15 8.74228e-8 -0.3384084 -8.73162e-16 -1 -5.96046e-8 0.2152418 8.74228e-8 -5.96046e-8 1 5.53796e-9 0 0 0 1</float_array>
        <technique_common>
          <accessor source="#PlayerArmature_uleg_R_pose_matrix-output-array" count="5" stride="16">
            <param name="TRANSFORM" type="float4x4"/>
          </accessor>
        </technique_common>
      </source>
      <source id="PlayerArmature_uleg_R_pose_matrix-interpolation">
        <Name_array id="PlayerArmature_uleg_R_pose_matrix-interpolation-array" count="5">LINEAR LINEAR LINEAR LINEAR LINEAR</Name_array>
        <technique_common>
          <accessor source="#PlayerArmature_uleg_R_pose_matrix-interpolation-array" count="5" stride="1">
            <param name="INTERPOLATION" type="name"/>
          </accessor>
        </technique_common>
      </source>
      <sampler id="PlayerArmature_uleg_R_pose_matrix-sampler">
        <input semantic="INPUT" source="#PlayerArmature_uleg_R_pose_matrix-input"/>
        <input semantic="OUTPUT" source="#PlayerArmature_uleg_R_pose_matrix-output"/>
        <input semantic="INTERPOLATION" source="#PlayerArmature_uleg_R_pose_matrix-interpolation"/>
      </sampler>
      <channel source="#PlayerArmature_uleg_R_pose_matrix-sampler" target="uleg_R/transform"/>
    </animation>
    <animation id="PlayerArmature_lleg_R_pose_matrix">
      <source id="PlayerArmature_lleg_R_pose_matrix-input">
        <float_array id="PlayerArmature_lleg_R_pose_matrix-input-array" count="5">0.04166662 0.4166666 0.8333333 1.25 1.666667</float_array>
        <technique_common>
          <accessor source="#PlayerArmature_lleg_R_pose_matrix-input-array" count="5" stride="1">
            <param name="TIME" type="float"/>
          </accessor>
        </technique_common>
      </source>
      <source id="PlayerArmature_lleg_R_pose_matrix-output">
        <float_array id="PlayerArmature_lleg_R_pose_matrix-output-array" count="80">1 0 0 0 0 1 0 0.8542596 0 0 1 5.32907e-15 0 0 0 1 1 0 0 0 0 1 0 0.8542596 0 0 1 5.32907e-15 0 0 0 1 1 0 0 0 0 1 0 0.8542596 0 0 1 5.32907e-15 0 0 0 1 1 0 0 0 0 1 0 0.8542596 0 0 1 5.32907e-15 0 0 0 1 1 0 0 0 0 1 0 0.8542596 0 0 1 5.32907e-15 0 0 0 1</float_array>
        <technique_common>
          <accessor source="#PlayerArmature_lleg_R_pose_matrix-output-array" count="5" stride="16">
            <param name="TRANSFORM" type="float4x4"/>
          </accessor>
        </technique_common>
      </source>
      <source id="PlayerArmature_lleg_R_pose_matrix-interpolation">
        <Name_array id="PlayerArmature_lleg_R_pose_matrix-interpolation-array" count="5">LINEAR LINEAR LINEAR LINEAR LINEAR</Name_array>
        <technique_common>
          <accessor source="#PlayerArmature_lleg_R_pose_matrix-interpolation-array" count="5" stride="1">
            <param name="INTERPOLATION" type="name"/>
          </accessor>
        </technique_common>
      </source>
      <sampler id="PlayerArmature_lleg_R_pose_matrix-sampler">
        <input semantic="INPUT" source="#PlayerArmature_lleg_R_pose_matrix-input"/>
        <input semantic="OUTPUT" source="#PlayerArmature_lleg_R_pose_matrix-output"/>
        <input semantic="INTERPOLATION" source="#PlayerArmature_lleg_R_pose_matrix-interpolation"/>
      </sampler>
      <channel source="#PlayerArmature_lleg_R_pose_matrix-sampler" target="lleg_R/transform"/>
    </animation>
    <animation id="PlayerArmature_body_pose_matrix">
      <source id="PlayerArmature_body_pose_matrix-input">
        <float_array id="PlayerArmature_body_pose_matrix-input-array" count="5">0.04166662 0.4166666 0.8333333 1.25 1.666667</float_array>
        <technique_common>
          <accessor source="#PlayerArmature_body_pose_matrix-input-array" count="5" stride="1">
            <param name="TIME" type="float"/>
          </accessor>
        </technique_common>
      </source>
      <source id="PlayerArmature_body_pose_matrix-output">
        <float_array id="PlayerArmature_body_pose_matrix-output-array" count="80">1 0 0 0 0 1 0 0.3419355 0 0 1 0 0 0 0 1 1 0 0 0 0 1 0 0.3419355 0 0 1 0 0 0 0 1 1 0 0 0 0 1 0 0.3419355 0 0 1 0 0 0 0 1 1 0 0 0 0 1 0 0.3419355 0 0 1 0 0 0 0 1 1 0 0 0 0 1 0 0.3419355 0 0 1 0 0 0 0 1</float_array>
        <technique_common>
          <accessor source="#PlayerArmature_body_pose_matrix-output-array" count="5" stride="16">
            <param name="TRANSFORM" type="float4x4"/>
          </accessor>
        </technique_common>
      </source>
      <source id="PlayerArmature_body_pose_matrix-interpolation">
        <Name_array id="PlayerArmature_body_pose_matrix-interpolation-array" count="5">LINEAR LINEAR LINEAR LINEAR LINEAR</Name_array>
        <technique_common>
          <accessor source="#PlayerArmature_body_pose_matrix-interpolation-array" count="5" stride="1">
            <param name="INTERPOLATION" type="name"/>
          </accessor>
        </technique_common>
      </source>
      <sampler id="PlayerArmature_body_pose_matrix-sampler">
        <input semantic="INPUT" source="#PlayerArmature_body_pose_matrix-input"/>
        <input semantic="OUTPUT" source="#PlayerArmature_body_pose_matrix-output"/>
        <input semantic="INTERPOLATION" source="#PlayerArmature_body_pose_matrix-interpolation"/>
      </sampler>
      <channel source="#PlayerArmature_body_pose_matrix-sampler" target="body/transform"/>
    </animation>
    <animation id="PlayerArmature_uarm_L_pose_matrix">
      <source id="PlayerArmature_uarm_L_pose_matrix-input">
        <float_array id="PlayerArmature_uarm_L_pose_matrix-input-array" count="5">0.04166662 0.4166666 0.8333333 1.25 1.666667</float_array>
        <technique_common>
          <accessor source="#PlayerArmature_uarm_L_pose_matrix-input-array" count="5" stride="1">
            <param name="TIME" type="float"/>
          </accessor>
        </technique_common>
      </source>
      <source id="PlayerArmature_uarm_L_pose_matrix-output">
        <float_array id="PlayerArmature_uarm_L_pose_matrix-output-array" count="80">-0.9883832 0.1519822 -3.37707e-7 0.9056869 -0.1519822 -0.9883832 -8.21738e-9 1.655167 -3.35033e-7 4.32036e-8 1 1.31614e-8 0 0 0 1 -0.9883832 0.1519822 -3.36418e-7 0.9056869 -0.1346368 -0.8755802 0.4639314 1.655167 0.07050902 0.458542 0.8858712 1.31614e-8 0 0 0 1 -0.9883832 0.1519822 -3.22884e-7 0.9056869 -0.09501492 -0.6179105 -0.7804863 1.655167 -0.1186202 -0.7714195 0.625173 1.31614e-8 0 0 0 1 -0.9883832 0.1519822 -3.36094e-7 0.9056869 -0.1519822 -0.9883832 -8.21738e-9 1.655167 -3.33439e-7 4.29584e-8 1 1.31614e-8 0 0 0 1 -0.9883832 0.1519822 -3.36094e-7 0.9056869 -0.1519822 -0.9883832 -8.21738e-9 1.655167 -3.33439e-7 4.29584e-8 1 1.31614e-8 0 0 0 1</float_array>
        <technique_common>
          <accessor source="#PlayerArmature_uarm_L_pose_matrix-output-array" count="5" stride="16">
            <param name="TRANSFORM" type="float4x4"/>
          </accessor>
        </technique_common>
      </source>
      <source id="PlayerArmature_uarm_L_pose_matrix-interpolation">
        <Name_array id="PlayerArmature_uarm_L_pose_matrix-interpolation-array" count="5">LINEAR LINEAR LINEAR LINEAR LINEAR</Name_array>
        <technique_common>
          <accessor source="#PlayerArmature_uarm_L_pose_matrix-interpolation-array" count="5" stride="1">
            <param name="INTERPOLATION" type="name"/>
          </accessor>
        </technique_common>
      </source>
      <sampler id="PlayerArmature_uarm_L_pose_matrix-sampler">
        <input semantic="INPUT" source="#PlayerArmature_uarm_L_pose_matrix-input"/>
        <input semantic="OUTPUT" source="#PlayerArmature_uarm_L_pose_matrix-output"/>
        <input semantic="INTERPOLATION" source="#PlayerArmature_uarm_L_pose_matrix-interpolation"/>
      </sampler>
      <channel source="#PlayerArmature_uarm_L_pose_matrix-sampler" target="uarm_L/transform"/>
    </animation>
    <animation id="PlayerArmature_larm_L_pose_matrix">
      <source id="PlayerArmature_larm_L_pose_matrix-input">
        <float_array id="PlayerArmature_larm_L_pose_matrix-input-array" count="5">0.04166662 0.4166666 0.8333333 1.25 1.666667</float_array>
        <technique_common>
          <accessor source="#PlayerArmature_larm_L_pose_matrix-input-array" count="5" stride="1">
            <param name="TIME" type="float"/>
          </accessor>
        </technique_common>
      </source>
      <source id="PlayerArmature_larm_L_pose_matrix-output">
        <float_array id="PlayerArmature_larm_L_pose_matrix-output-array" count="80">0.9883833 0.1519823 -2.61793e-7 0 -0.1519824 0.9883832 -5.57145e-8 0.6549404 2.50285e-7 9.48553e-8 1 2.84217e-14 0 0 0 1 0.9883833 0.1519823 -2.61793e-7 0 -0.1519824 0.9883832 -5.57145e-8 0.6549404 2.50285e-7 9.48553e-8 1 2.84217e-14 0 0 0 1 0.9883833 0.1519823 -2.61793e-7 0 -0.1519824 0.9883832 -5.57145e-8 0.6549404 2.50285e-7 9.48553e-8 1 2.84217e-14 0 0 0 1 0.9883833 0.1519823 -2.61793e-7 0 -0.1519824 0.9883832 -5.57145e-8 0.6549404 2.50285e-7 9.48553e-8 1 2.84217e-14 0 0 0 1 0.9883833 0.1519823 -2.61793e-7 0 -0.1519824 0.9883832 -5.57145e-8 0.6549404 2.50285e-7 9.48553e-8 1 2.84217e-14 0 0 0 1</float_array>
        <technique_common>
          <accessor source="#PlayerArmature_larm_L_pose_matrix-output-array" count="5" stride="16">
            <param name="TRANSFORM" type="float4x4"/>
          </accessor>
        </technique_common>
      </source>
      <source id="PlayerArmature_larm_L_pose_matrix-interpolation">
        <Name_array id="PlayerArmature_larm_L_pose_matrix-interpolation-array" count="5">LINEAR LINEAR LINEAR LINEAR LINEAR</Name_array>
        <technique_common>
          <accessor source="#PlayerArmature_larm_L_pose_matrix-interpolation-array" count="5" stride="1">
            <param name="INTERPOLATION" type="name"/>
          </accessor>
        </technique_common>
      </source>
      <sampler id="PlayerArmature_larm_L_pose_matrix-sampler">
        <input semantic="INPUT" source="#PlayerArmature_larm_L_pose_matrix-input"/>
        <input semantic="OUTPUT" source="#PlayerArmature_larm_L_pose_matrix-output"/>
        <input semantic="INTERPOLATION" source="#PlayerArmature_larm_L_pose_matrix-interpolation"/>
      </sampler>
      <channel source="#PlayerArmature_larm_L_pose_matrix-sampler" target="larm_L/transform"/>
    </animation>
    <animation id="PlayerArmature_uarm_R_pose_matrix">
      <source id="PlayerArmature_uarm_R_pose_matrix-input">
        <float_array id="PlayerArmature_uarm_R_pose_matrix-input-array" count="5">0.04166662 0.4166666 0.8333333 1.25 1.666667</float_array>
        <technique_common>
          <accessor source="#PlayerArmature_uarm_R_pose_matrix-input-array" count="5" stride="1">
            <param name="TIME" type="float"/>
          </accessor>
        </technique_common>
      </source>
      <source id="PlayerArmature_uarm_R_pose_matrix-output">
        <float_array id="PlayerArmature_uarm_R_pose_matrix-output-array" count="80">-0.9883832 -0.1519822 1.13757e-7 -0.9056869 0.1519822 -0.9883832 2.62192e-8 1.655167 1.08451e-7 4.32036e-8 1 1.31614e-8 0 0 0 1 -0.9883833 -0.1519822 1.23126e-7 -0.9056869 0.1346366 -0.8755803 -0.4639314 1.655167 0.07050941 -0.4585419 0.8858712 1.31614e-8 0 0 0 1 -0.9883832 -0.1519822 1.30722e-7 -0.9056869 0.09501527 -0.6179104 0.7804863 1.655167 -0.11862 0.7714195 0.6251729 1.31614e-8 0 0 0 1 -0.9883832 -0.1519822 1.1537e-7 -0.9056869 0.1519822 -0.9883832 2.62192e-8 1.655167 1.10045e-7 4.34488e-8 1 1.31614e-8 0 0 0 1 -0.9883832 -0.1519822 1.1537e-7 -0.9056869 0.1519822 -0.9883832 2.62192e-8 1.655167 1.10045e-7 4.34488e-8 1 1.31614e-8 0 0 0 1</float_array>
        <technique_common>
          <accessor source="#PlayerArmature_uarm_R_pose_matrix-output-array" count="5" stride="16">
            <param name="TRANSFORM" type="float4x4"/>
          </accessor>
        </technique_common>
      </source>
      <source id="PlayerArmature_uarm_R_pose_matrix-interpolation">
        <Name_array id="PlayerArmature_uarm_R_pose_matrix-interpolation-array" count="5">LINEAR LINEAR LINEAR LINEAR LINEAR</Name_array>
        <technique_common>
          <accessor source="#PlayerArmature_uarm_R_pose_matrix-interpolation-array" count="5" stride="1">
            <param name="INTERPOLATION" type="name"/>
          </accessor>
        </technique_common>
      </source>
      <sampler id="PlayerArmature_uarm_R_pose_matrix-sampler">
        <input semantic="INPUT" source="#PlayerArmature_uarm_R_pose_matrix-input"/>
        <input semantic="OUTPUT" source="#PlayerArmature_uarm_R_pose_matrix-output"/>
        <input semantic="INTERPOLATION" source="#PlayerArmature_uarm_R_pose_matrix-interpolation"/>
      </sampler>
      <channel source="#PlayerArmature_uarm_R_pose_matrix-sampler" target="uarm_R/transform"/>
    </animation>
    <animation id="PlayerArmature_larm_R_pose_matrix">
      <source id="PlayerArmature_larm_R_pose_matrix-input">
        <float_array id="PlayerArmature_larm_R_pose_matrix-input-array" count="5">0.04166662 0.4166666 0.8333333 1.25 1.666667</float_array>
        <technique_common>
          <accessor source="#PlayerArmature_larm_R_pose_matrix-input-array" count="5" stride="1">
            <param name="TIME" type="float"/>
          </accessor>
        </technique_common>
      </source>
      <source id="PlayerArmature_larm_R_pose_matrix-output">
        <float_array id="PlayerArmature_larm_R_pose_matrix-output-array" count="80">0.9883833 -0.1519823 2.08182e-7 0 0.1519824 0.9883832 -3.0163e-8 0.6549404 -2.0118e-7 6.14526e-8 1 3.55271e-15 0 0 0 1 0.9883833 -0.1519823 2.08182e-7 0 0.1519824 0.9883832 -3.0163e-8 0.6549404 -2.0118e-7 6.14526e-8 1 3.55271e-15 0 0 0 1 0.9883833 -0.1519823 2.08182e-7 0 0.1519824 0.9883832 -3.0163e-8 0.6549404 -2.0118e-7 6.14526e-8 1 3.55271e-15 0 0 0 1 0.9883833 -0.1519823 2.08182e-7 0 0.1519824 0.9883832 -3.0163e-8 0.6549404 -2.0118e-7 6.14526e-8 1 3.55271e-15 0 0 0 1 0.9883833 -0.1519823 2.08182e-7 0 0.1519824 0.9883832 -3.0163e-8 0.6549404 -2.0118e-7 6.14526e-8 1 3.55271e-15 0 0 0 1</float_array>
        <technique_common>
          <accessor source="#PlayerArmature_larm_R_pose_matrix-output-array" count="5" stride="16">
            <param name="TRANSFORM" type="float4x4"/>
          </accessor>
        </technique_common>
      </source>
      <source id="PlayerArmature_larm_R_pose_matrix-interpolation">
        <Name_array id="PlayerArmature_larm_R_pose_matrix-interpolation-array" count="5">LINEAR LINEAR LINEAR LINEAR LINEAR</Name_array>
        <technique_common>
          <accessor source="#PlayerArmature_larm_R_pose_matrix-interpolation-array" count="5" stride="1">
            <param name="INTERPOLATION" type="name"/>
          </accessor>
        </technique_common>
      </source>
      <sampler id="PlayerArmature_larm_R_pose_matrix-sampler">
        <input semantic="INPUT" source="#PlayerArmature_larm_R_pose_matrix-input"/>
        <input semantic="OUTPUT" source="#PlayerArmature_larm_R_pose_matrix-output"/>
        <input semantic="INTERPOLATION" source="#PlayerArmature_larm_R_pose_matrix-interpolation"/>
      </sampler>
      <channel source="#PlayerArmature_larm_R_pose_matrix-sampler" target="larm_R/transform"/>
    </animation>
    <animation id="PlayerArmature_top_pose_matrix">
      <source id="PlayerArmature_top_pose_matrix-input">
        <float_array id="PlayerArmature_top_pose_matrix-input-array" count="5">0.04166662 0.4166666 0.8333333 1.25 1.666667</float_array>
        <technique_common>
          <accessor source="#PlayerArmature_top_pose_matrix-input-array" count="5" stride="1">
            <param name="TIME" type="float"/>
          </accessor>
        </technique_common>
      </source>
      <source id="PlayerArmature_top_pose_matrix-output">
        <float_array id="PlayerArmature_top_pose_matrix-output-array" count="80">-1 -6.60024e-15 -1.50996e-7 0 6.60024e-15 1 -8.74228e-8 1.956265 1.50996e-7 -8.74228e-8 -1 -3.55271e-15 0 0 0 1 -1 -6.60024e-15 -1.50996e-7 0 6.60024e-15 1 -8.74228e-8 1.956265 1.50996e-7 -8.74228e-8 -1 -3.55271e-15 0 0 0 1 -1 -6.60024e-15 -1.50996e-7 0 6.60024e-15 1 -8.74228e-8 1.956265 1.50996e-7 -8.74228e-8 -1 -3.55271e-15 0 0 0 1 -1 -6.60024e-15 -1.50996e-7 0 6.60024e-15 1 -8.74228e-8 1.956265 1.50996e-7 -8.74228e-8 -1 -3.55271e-15 0 0 0 1 -1 -6.60024e-15 -1.50996e-7 0 6.60024e-15 1 -8.74228e-8 1.956265 1.50996e-7 -8.74228e-8 -1 -3.55271e-15 0 0 0 1</float_array>
        <technique_common>
          <accessor source="#PlayerArmature_top_pose_matrix-output-array" count="5" stride="16">
            <param name="TRANSFORM" type="float4x4"/>
          </accessor>
        </technique_common>
      </source>
      <source id="PlayerArmature_top_pose_matrix-interpolation">
        <Name_array id="PlayerArmature_top_pose_matrix-interpolation-array" count="5">LINEAR LINEAR LINEAR LINEAR LINEAR</Name_array>
        <technique_common>
          <accessor source="#PlayerArmature_top_pose_matrix-interpolation-array" count="5" stride="1">
            <param name="INTERPOLATION" type="name"/>
          </accessor>
        </technique_common>
      </source>
      <sampler id="PlayerArmature_top_pose_matrix-sampler">
        <input semantic="INPUT" source="#PlayerArmature_top_pose_matrix-input"/>
        <input semantic="OUTPUT" source="#PlayerArmature_top_pose_matrix-output"/>
        <input semantic="INTERPOLATION" source="#PlayerArmature_top_pose_matrix-interpolation"/>
      </sampler>
      <channel source="#PlayerArmature_top_pose_matrix-sampler" target="top/transform"/>
    </animation>
  </library_animations>
  <library_controllers>
    <controller id="PlayerArmature_Player-skin" name="PlayerArmature">
      <skin source="#Cube-mesh">
        <bind_shape_matrix>0.5 0 0 0 0 0.5 0 0 0 0 0.5 0 0 0 0 1</bind_shape_matrix>
        <source id="PlayerArmature_Player-skin-joints">
          <Name_array id="PlayerArmature_Player-skin-joints-array" count="10">body larm_R uarm_R larm_L uarm_L lleg_R uleg_R lleg_L uleg_L top</Name_array>
          <technique_common>
            <accessor source="#PlayerArmature_Player-skin-joints-array" count="10" stride="1">
              <param name="JOINT" type="name"/>
            </accessor>
          </technique_common>
        </source>
        <source id="PlayerArmature_Player-skin-bind_poses">
          <float_array id="PlayerArmature_Player-skin-bind_poses-array" count="160">2 0 0 0 0 0 2 -2.043733 0 -2 0 0 0 0 0 1 -2 1.74846e-7 -2.98023e-7 -1.005226 3.63775e-7 0 -2 3.051568 -1.74846e-7 -2 0 -3.22485e-7 0 0 0 1 -1.976766 -2.30188e-7 0.3039644 -1.457333 -0.3039644 0 -1.976766 3.518283 2.27514e-7 -2 0 0 0 0 0 1 -2 1.74846e-7 1.78814e-7 1.005226 -3.63775e-7 0 -2 3.051568 -1.74846e-7 -2 0 -1.43571e-7 0 0 0 1 -1.976766 6.83353e-7 -0.3039644 1.457333 0.3039644 0 -1.976766 3.518283 -6.75415e-7 -2 0 3.97479e-7 0 0 0 1 -2 -1.74846e-7 0 -0.3384084 0 0 -2 1.06278 1.74846e-7 -2 0 0 0 0 0 1 -2 -1.74846e-7 0 -0.3384084 0 0 -2 1.917039 1.74846e-7 -2 0 0 0 0 0 1 -2 1.74846e-7 0 0.3384084 0 0 -2 1.06278 -1.74846e-7 -2 0 0 0 0 0 1 -2 1.74846e-7 0 0.3384084 0 0 -2 1.917039 -1.74846e-7 -2 0 0 0 0 0 1 -2 -3.01992e-7 0 0 0 0 2 -3.999998 -3.01992e-7 2 0 2.75303e-7 0 0 0 1</float_array>
          <technique_common>
            <accessor source="#PlayerArmature_Player-skin-bind_poses-array" count="10" stride="16">
              <param name="TRANSFORM" type="float4x4"/>
            </accessor>
          </technique_common>
        </source>
        <source id="PlayerArmature_Player-skin-weights">
          <float_array id="PlayerArmature_Player-skin-weights-array" count="88">1 1 1 1 1 1 1 1 1 1 1 1 1 1 1 1 1 1 1 1 1 1 1 1 1 1 1 1 1 1 1 1 1 1 1 1 1 1 1 1 1 1 1 1 1 1 1 1 1 1 1 1 1 1 1 1 0.5 0.5 0.5 0.5 0.5 0.5 0.5 0.5 0.5 0.5 0.5 0.5 0.5 0.5 0.5 0.5 0.5 0.5 0.5 0.5 0.5 0.5 0.5 0.5 0.5 0.5 0.5 0.5 0.5 0.5 0.5 0.5</float_array>
          <technique_common>
            <accessor source="#PlayerArmature_Player-skin-weights-array" count="88" stride="1">
              <param name="WEIGHT" type="float"/>
            </accessor>
          </technique_common>
        </source>
        <joints>
          <input semantic="JOINT" source="#PlayerArmature_Player-skin-joints"/>
          <input semantic="INV_BIND_MATRIX" source="#PlayerArmature_Player-skin-bind_poses"/>
        </joints>
        <vertex_weights count="72">
          <input semantic="JOINT" source="#PlayerArmature_Player-skin-joints" offset="0"/>
          <input semantic="WEIGHT" source="#PlayerArmature_Player-skin-weights" offset="1"/>
          <vcount>1 1 1 1 1 1 1 1 1 1 1 1 1 1 1 1 1 1 1 1 1 1 1 1 1 1 1 1 1 1 1 1 1 1 1 1 1 1 1 1 1 1 1 1 1 1 1 1 1 1 1 1 1 1 1 1 2 2 2 2 2 2 2 2 2 2 2 2 2 2 2 2 </vcount>
          <v>9 0 9 1 9 2 9 3 9 4 9 5 9 6 9 7 0 8 0 9 0 10 0 11 0 12 0 13 0 14 0 15 5 16 5 17 8 18 8 19 6 20 6 21 7 22 7 23 6 24 5 25 6 26 5 27 7 28 8 29 7 30 8 31 2 32 2 33 1 34 1 35 1 36 2 37 1 38 2 39 4 40 3 41 4 42 3 43 3 44 3 45 4 46 4 47 9 48 9 49 9 50 9 51 9 52 9 53 9 54 9 55 1 56 2 57 1 58 2 59 1 60 2 61 1 62 2 63 3 64 4 65 3 66 4 67 3 68 4 69 3 70 4 71 5 72 6 73 5 74 6 75 5 76 6 77 5 78 6 79 7 80 8 81 7 82 8 83 7 84 8 85 7 86 8 87</v>
        </vertex_weights>
      </skin>
    </controller>
  </library_controllers>
  <library_visual_scenes>
    <visual_scene id="Scene" name="Scene">
      <node id="Camera" name="Camera" type="NODE">
        <translate sid="location">0 -6 1.5</translate>
        <rotate sid="rotationZ">0 0 1 0</rotate>
        <rotate sid="rotationY">0 1 0 0</rotate>
        <rotate sid="rotationX">1 0 0 89.00004</rotate>
        <scale sid="scale">1 1 1</scale>
        <instance_camera url="#Camera-camera"/>
      </node>
      <node id="PlayerArmature" name="PlayerArmature" type="NODE">
        <translate sid="location">0 0 1.06278</translate>
        <rotate sid="rotationZ">0 0 1 0</rotate>
        <rotate sid="rotationY">0 1 0 0</rotate>
        <rotate sid="rotationX">1 0 0 0</rotate>
        <scale sid="scale">0.5 0.5 0.5</scale>
        <node id="root" name="root" sid="root" type="JOINT">
          <matrix sid="transform">1 0 0 0 0 -4.37114e-8 -1 0 0 1 -4.37114e-8 -0.4237617 0 0 0 1</matrix>
          <node id="uleg_L" name="uleg.L" sid="uleg_L" type="JOINT">
            <matrix sid="transform">-1 3.82137e-15 -8.74228e-8 0.3384084 -3.82137e-15 -1 0 0.2152418 -8.74228e-8 0 1 5.53796e-9 0 0 0 1</matrix>
            <node id="lleg_L" name="lleg.L" sid="lleg_L" type="JOINT">
              <matrix sid="transform">1 0 0 0 0 1 0 0.8542596 0 0 1 -4.44089e-15 0 0 0 1</matrix>
            </node>
          </node>
          <node id="uleg_R" name="uleg.R" sid="uleg_R" type="JOINT">
            <matrix sid="transform">-1 -3.82137e-15 8.74228e-8 -0.3384084 3.82137e-15 -1 0 0.2152418 8.74228e-8 0 1 5.53796e-9 0 0 0 1</matrix>
            <node id="lleg_R" name="lleg.R" sid="lleg_R" type="JOINT">
              <matrix sid="transform">1 0 0 0 0 1 0 0.8542596 0 0 1 -4.44089e-15 0 0 0 1</matrix>
            </node>
          </node>
          <node id="body" name="body" sid="body" type="JOINT">
            <matrix sid="transform">1 0 0 0 0 1 0 0.3419355 0 0 1 0 0 0 0 1</matrix>
            <node id="uarm_L" name="uarm.L" sid="uarm_L" type="JOINT">
              <matrix sid="transform">-0.9883832 0.1519822 -3.37707e-7 0.9056869 -0.1519822 -0.9883832 -8.21738e-9 1.655167 -3.35033e-7 4.32036e-8 1 1.31614e-8 0 0 0 1</matrix>
              <node id="larm_L" name="larm.L" sid="larm_L" type="JOINT">
                <matrix sid="transform">0.9883833 0.1519823 -2.61793e-7 0 -0.1519824 0.9883832 -5.57145e-8 0.6549404 2.50285e-7 9.48553e-8 1 2.84217e-14 0 0 0 1</matrix>
              </node>
            </node>
            <node id="uarm_R" name="uarm.R" sid="uarm_R" type="JOINT">
              <matrix sid="transform">-0.9883832 -0.1519822 1.13757e-7 -0.9056869 0.1519822 -0.9883832 2.62192e-8 1.655167 1.08451e-7 4.32036e-8 1 1.31614e-8 0 0 0 1</matrix>
              <node id="larm_R" name="larm.R" sid="larm_R" type="JOINT">
                <matrix sid="transform">0.9883833 -0.1519823 2.08182e-7 0 0.1519824 0.9883832 -3.0163e-8 0.6549404 -2.0118e-7 6.14526e-8 1 3.55271e-15 0 0 0 1</matrix>
              </node>
            </node>
            <node id="top" name="top" sid="top" type="JOINT">
              <matrix sid="transform">-1 -6.60024e-15 -1.50996e-7 0 6.60024e-15 1 -8.74228e-8 1.956265 1.50996e-7 -8.74228e-8 -1 -3.55271e-15 0 0 0 1</matrix>
            </node>
          </node>
        </node>
      </node>
      <node id="Player" name="Player" type="NODE">
        <translate sid="location">0 0 0</translate>
        <rotate sid="rotationZ">0 0 1 0</rotate>
        <rotate sid="rotationY">0 1 0 0</rotate>
        <rotate sid="rotationX">1 0 0 0</rotate>
        <scale sid="scale">1 1 1</scale>
        <instance_controller url="#PlayerArmature_Player-skin">
          <skeleton>#root</skeleton>
          <bind_material>
            <technique_common>
              <instance_material symbol="Player-material" target="#Player-material"/>
            </technique_common>
          </bind_material>
        </instance_controller>
      </node>
      <node id="Sun" name="Sun" type="NODE">
        <translate sid="location">1.519818 -6.110837 5.383397</translate>
        <rotate sid="rotationZ">0 0 1 0.3635518</rotate>
        <rotate sid="rotationY">0 1 0 20.09937</rotate>
        <rotate sid="rotationX">1 0 0 56.34863</rotate>
        <scale sid="scale">1 0.9999999 1</scale>
        <instance_light url="#Sun-light"/>
      </node>
    </visual_scene>
  </library_visual_scenes>
  <scene>
    <instance_visual_scene url="#Scene"/>
  </scene>
</COLLADA>